Regular Expressions and stringr
…
```
## Rows: 214,195
## Columns: 3
## $ mail_num <dbl> 1, 1, 1, 1, 1, 1, 1, 1, 1, 1, 1, 1, 1, 1, 1, 1, 10, 10, 10, 1…
## $ person   <chr> "allen-p", "allen-p", "allen-p", "allen-p", "allen-p", "allen…
## $ email    <chr> "Message-ID: <18782981.1075855378110.JavaMail.evans@thyme>", …
```

```r
head(enron, n=50)
```

```
## # A tibble: 50 × 3
##    mail_num person  email                                                    
##       <dbl> <chr>   <chr>                                                    
##  1        1 allen-p Message-ID: <18782981.1075855378110.JavaMail.evans@thyme>
##  2        1 allen-p Date: Mon, 14 May 2001 16:39:00 -0700 (PDT)              
##  3        1 allen-p From: phillip.allen@enron.com                            
##  4        1 allen-p To: tim.belden@enron.com                                 
##  5        1 allen-p Subject:                                                 
##  6        1 allen-p Mime-Version: 1.0                                        
##  7        1 allen-p Content-Type: text/plain; charset=us-ascii               
##  8        1 allen-p Content-Transfer-Encoding: 7bit                          
##  9        1 allen-p X-From: Phillip K Allen                                  
## 10        1 allen-p X-To: Tim Belden <Tim Belden/Enron@EnronXGate>           
## # … with 40 more rows
```
…
```r
enron %>% filter(str_detect(enron$email, "@ECT")) %>% select 
```

```
## # A tibble: 6,524 × 0
```

```r
enron %>% filter(str_detect(enron$email, "weekend$"))
```

```
## # A tibble: 45 × 3
##    mail_num person   email                                                      
##       <dbl> <chr>    <chr>                                                      
##  1       69 allen-p  morning I sent you the roll did you get it? Did you need m…
##  2       94 carson-m Subject: This weekend                                      
##  3       94 carson-m Subject: This weekend                                      
##  4       95 carson-m Subject: Re: This weekend                                  
##  5       69 davis-d  Subject: Manual JE info for cutover weekend                
##  6       69 davis-d  Subject: Manual JE info for cutover weekend                
##  7       69 davis-d  Subject: Manual JE info for cutover weekend                
##  8        1 dean-c   Subject: RE: This weekend                                  
##  9        1 dean-c   Subject: RE: This weekend                                  
## 10        1 dean-c   Subject: RE: This weekend                                  
## # … with 35 more rows
```
…
```r
x <- c("4444-22-22", "test", "333-4444-22")
str_view(x, "\\d{4}-\\d{2}-\\d{2}")
```

---

### Canonical principle #6: Character Clusters

```r
enron %>% filter(str_detect(email, "@.*\\.(edu|net)")) %>% select(email)
```

```
## # A tibble: 1,646 × 1
##    email                                                                      
##    <chr>                                                                      
##  1 "<retwell@mail.sanmarcos.net>"                                             
##  2 "cc: \"Larry Lewter\" <retwell@mail.sanmarcos.net>, \"Claudia L. Crocker\""
##  3 "\"Bob McKinney\" <capstone@texas.net> on 11/27/2000 09:46:13 AM"          
##  4 "To: \"Capstone\" <capstone@texas.net>"                                    
##  5 "Brian_Hoskins@enron.net"                                                  
##  6 "Brian_Hoskins@enron.net"                                                  
##  7 "Brian_Hoskins@enron.net"                                                  
##  8 "Brian_Hoskins@enron.net"                                                  
##  9 "To: adam.r.bayer@vanderbilt.edu"                                          
## 10 "X-To: \"Adam Bayer\" <adam.r.bayer@vanderbilt.edu> @ ENRON"               
## # … with 1,636 more rows
```
…
